BatchNumber,Folder,MailTitle,MailAddress,Password,Deadline,Status,mailAddressFile,dataFile,ProjectListFile
B01,INBOX,Allocation,teamtecneo@gmail.com,techneo@123,15/07/2016,completed,D:\gayathree\SE2\mail\mailAddress.csv,D:\gayathree\SE2\mail,D:\gayathree\SE2\WorkSpace\ProjectAllocator\resources\ProjectAllocationData.tsv
B02,INBOX,Test1,teamtecneo@gmail.com,techneo@123,15/07/2016,completed,D:\gayathree\SE2\mail\mailAddress.csv,D:\gayathree\SE2\mail,D:\gayathree\SE2\WorkSpace\ProjectAllocator\resources\ProjectAllocationData.tsv
B04,INBOX,Test mail,teamtecneo@gmail.com,techneo@123,16/07/2016,COMPLETED,D:\gayathree\SE2\mail\mailAddress.csv,D:\gayathree\SE2\mail,D:\gayathree\SE2\mail\Project List.xlsx